Converting 2002.csv
#Voltage        #Pad    #Current
100	1	76.9
100	2	104.08
100	3	126.43
100	4	114.08
100	5	72.47
100	6	92.01
100	7	78.62
100	8	113.02
100	9	160.07
100	10	176.87
100	11	141.24
100	12	78.52
100	13	91.94
100	14	64.03
100	15	67.49
100	16	88.94
100	17	158.18
100	18	210.3
100	19	230.1
100	20	231
100	21	183.6
100	22	92.46
100	23	106.65
100	24	75.93
100	25	67.08
100	26	58.66
100	27	69.47
100	28	123.97
100	29	179.39
100	30	233.7
100	31	271.1
100	32	284.7
100	33	265
100	34	193.6
100	35	137.96
100	36	86.84
100	37	73.91
100	38	56.62
100	39	46.21
100	40	41.64
100	41	58.78
100	42	107.49
100	43	148.65
100	44	191
100	45	232.4
100	46	280
100	47	265.8
100	48	263.4
100	49	151.31
100	50	100.75
100	51	75.27
100	52	69.32
100	53	54.08
100	54	44.7
100	55	41.8
100	56	57.2
100	57	132.77
100	58	185.2
100	59	242.8
100	60	289.5
100	61	294.5
100	62	279.8
100	63	260.7
100	64	129.62
100	65	106.09
100	66	83.31
100	67	59.69
100	68	51.28
100	69	37.87
100	70	30.92
100	71	32.37
100	72	73.09
100	73	117.06
100	74	163.42
100	75	222.2
100	76	258
100	77	275.3
100	78	249.4
100	79	209.6
100	80	157.29
100	81	100.46
100	82	67.9
100	83	49.12
100	84	35.54
100	85	26.54
100	86	26.2
100	87	42.12
100	88	59.22
100	89	84.28
100	90	120.86
100	91	179.82
100	92	230
100	93	253.1
100	94	267.2
100	95	131.9
100	96	110.46
100	97	81.2
100	98	56.05
100	99	44.9
100	100	31.55
100	101	24.18
100	102	24.13
100	103	45.06
100	104	82.46
100	105	117.01
100	106	170.81
100	107	182.7
100	108	220.6
100	109	212.7
100	110	200.4
100	111	164.99
100	112	104.89
100	113	69.5
100	114	47.57
100	115	31.84
100	116	22.31
100	117	16.626
100	118	24.54
100	119	54.93
100	120	83.37
100	121	119.98
100	122	154.97
100	123	188
100	124	215.3
100	125	251.9
100	126	144.89
100	127	121.98
100	128	89.42
100	129	61.75
100	130	50.07
100	131	34.74
100	132	25
100	133	21.99
100	134	40.24
100	135	67.81
100	136	94.37
100	137	135.69
100	138	161.18
100	139	194.8
100	140	192.3
100	141	197
100	142	184.8
100	143	122.58
100	144	81.88
100	145	58.64
100	146	41.67
100	147	29.7
100	148	25.74
100	149	38.76
100	150	50.29
100	151	65.44
100	152	92.01
100	153	140.58
100	154	185.5
100	155	204.2
100	156	249.1
100	157	163.76
100	158	143.42
100	159	111.12
100	160	77.91
100	161	65.53
100	162	46.99
100	163	34.97
100	164	36.22
100	165	62.99
100	166	91.35
100	167	119.53
100	168	156.79
100	169	179.59
100	170	202.4
100	171	171
100	172	183.1
100	173	208.9
100	174	148.15
100	175	106.43
100	176	96.02
100	177	72.47
100	178	54.98
100	179	51.33
100	180	63.76
100	181	95.44
100	182	123.09
100	183	154.44
100	184	183.3
100	185	195.6
100	186	195.4
100	187	243.5
100	188	209.4
100	189	133.05
100	190	107.88
100	191	79.25
100	192	61.05
100	193	49.62
100	194	49.57
100	195	77.26
100	196	97.41
100	197	120.92
100	198	152.69
100	199	189.3
100	200	184
100	201	255.5
100	202	158.51
100	203	176.31
100	204	108.55
100	205	88.76
100	206	68.91
100	207	56.74
100	208	70.19
100	209	125.95
100	210	149.51
100	211	182.2
100	212	193.8
100	213	250.2
100	214	200.8
100	215	136.27
100	216	141.37
100	217	77.15
100	218	68.88
100	219	77.04
100	220	120.89
100	221	146.39
100	222	156.71
100	223	239.1
100	224	206.1
100	225	122.6
100	226	133.67
100	227	89.69
100	228	121.78
100	229	126.15
100	230	208.2
100	231	180.1
100	232	135.73
100	233	186.5
100	234	192.9
100	235	143.84
100	236	14.969
100	237	5.411
100	238	2.221
100	239	7.398
200	1	501.6
200	2	631.8
200	3	716.5
200	4	646.6
200	5	532.5
200	6	549
200	7	202.3
200	8	304.9
200	9	401.5
200	10	828.7
200	11	792.2
200	12	589
200	13	607
200	14	158.18
200	15	186.4
200	16	268.7
200	17	404.5
200	18	499.3
200	19	549.9
200	20	1001.7
200	21	921.7
200	22	648.2
200	23	675.3
200	24	185.1
200	25	178.96
200	26	154.16
200	27	217
200	28	346.7
200	29	461.1
200	30	560.2
200	31	646.3
200	32	664.9
200	33	1045.9
200	34	930.6
200	35	845
200	36	212.4
200	37	196.9
200	38	149.72
200	39	124.56
200	40	119.11
200	41	202
200	42	332.5
200	43	432.2
200	44	540
200	45	597.6
200	46	656.7
200	47	626.3
200	48	1102.8
200	49	902.7
200	50	243.6
200	51	189.2
200	52	184.3
200	53	148.4
200	54	123.91
200	55	134.9
200	56	207
200	57	403.2
200	58	526.9
200	59	633.5
200	60	675.1
200	61	647.7
200	62	637.6
200	63	1128.5
200	64	855.7
200	65	249.9
200	66	204.8
200	67	162.48
200	68	142.47
200	69	109.67
200	70	94.83
200	71	126.59
200	72	258.6
200	73	386.6
200	74	512.5
200	75	616.5
200	76	641.4
200	77	622.2
200	78	613
200	79	1050.2
200	80	904
200	81	256.4
200	82	173.81
200	83	127.77
200	84	97.44
200	85	75.69
200	86	82.54
200	87	153.68
200	88	232.4
200	89	338.9
200	90	462.7
200	91	560.3
200	92	611.2
200	93	634.2
200	94	1149
200	95	873.6
200	96	258.3
200	97	201.5
200	98	142.54
200	99	116.12
200	100	84.95
200	101	67.96
200	102	85.07
200	103	167.72
200	104	312.1
200	105	441
200	106	568.1
200	107	541.8
200	108	561
200	109	578
200	110	1071.9
200	111	927
200	112	269.5
200	113	176.08
200	114	125.21
200	115	92.63
200	116	65.91
200	117	55.69
200	118	90.82
200	119	215
200	120	321.7
200	121	449.8
200	122	521.2
200	123	516.1
200	124	584
200	125	1157.4
200	126	910.6
200	127	285.8
200	128	224.1
200	129	157.39
200	130	129.43
200	131	93.52
200	132	69.98
200	133	79.84
200	134	152.73
200	135	260.4
200	136	365.8
200	137	459.2
200	138	481.1
200	139	495.8
200	140	541.7
200	141	1070
200	142	971.6
200	143	309.8
200	144	211.7
200	145	154.09
200	146	115.29
200	147	84.35
200	148	81.83
200	149	133.84
200	150	189.9
200	151	261.2
200	152	347.1
200	153	438
200	154	500.4
200	155	565.7
200	156	1145.2
200	157	937.9
200	158	330.3
200	159	276.4
200	160	214.2
200	161	182.8
200	162	134.89
200	163	108.22
200	164	124.03
200	165	205.2
200	166	289.3
200	167	371.9
200	168	448.9
200	169	465.6
200	170	474.6
200	171	449.8
200	172	1026.7
200	173	1039.3
200	174	345.6
200	175	271.8
200	176	251.5
200	177	194.2
200	178	151.64
200	179	149.95
200	180	198.6
200	181	288.6
200	182	358.7
200	183	428
200	184	467.2
200	185	460.5
200	186	532.9
200	187	1137.2
200	188	1046
200	189	317.2
200	190	292.2
200	191	206.4
200	192	160.54
200	193	135.1
200	194	154.36
200	195	243.3
200	196	305.9
200	197	373.9
200	198	419.2
200	199	514.4
200	200	519.2
200	201	1153.7
200	202	940.7
200	203	984.6
200	204	275.8
200	205	242.2
200	206	173.39
200	207	166.55
200	208	221.1
200	209	353.8
200	210	395.9
200	211	513.7
200	212	542.5
200	213	1134.7
200	214	1055.4
200	215	929.1
200	216	922
200	217	207.7
200	218	208.2
200	219	234.9
200	220	323
200	221	431.7
200	222	475.7
200	223	1155.2
200	224	1100
200	225	893.7
200	226	899.7
200	227	257.8
200	228	362.1
200	229	381.3
200	230	1101.1
200	231	1066.8
200	232	927.3
200	233	1048.3
200	234	1067.4
200	235	955.8
200	236	58.64
200	237	22.37
200	238	9.533
200	239	30.82
300	1	1160.1
300	2	1285.6
300	3	1387
300	4	1336.8
300	5	1196.9
300	6	1224.6
300	7	430.6
300	8	569.8
300	9	797.2
300	10	1535.4
300	11	1494.8
300	12	1260.7
300	13	1288.3
300	14	346.1
300	15	414.4
300	16	472.6
300	17	644.6
300	18	915.1
300	19	1007.5
300	20	1691.4
300	21	1603.2
300	22	1315.1
300	23	1352
300	24	387.8
300	25	380.9
300	26	291.1
300	27	413.9
300	28	582.7
300	29	757.3
300	30	853.2
300	31	1155.6
300	32	1193.8
300	33	1694.8
300	34	1573.2
300	35	1514.7
300	36	512.7
300	37	425.3
300	38	261.7
300	39	229.3
300	40	233
300	41	394.9
300	42	590
300	43	714.5
300	44	867.3
300	45	927.2
300	46	1189
300	47	1221.8
300	48	1732.6
300	49	1575.3
300	50	595.9
300	51	329.1
300	52	317.7
300	53	265.4
300	54	229.9
300	55	275.3
300	56	413.7
300	57	695.7
300	58	852.5
300	59	968.6
300	60	1011.6
300	61	979.4
300	62	1262.5
300	63	1765.5
300	64	1539.3
300	65	603.9
300	66	358.4
300	67	294.6
300	68	254.3
300	69	200.8
300	70	189.6
300	71	277.7
300	72	504.5
300	73	707.9
300	74	870.9
300	75	966.1
300	76	939.5
300	77	969.8
300	78	1237.8
300	79	1695.1
300	80	1600.9
300	81	603.7
300	82	320.3
300	83	242.5
300	84	186.5
300	85	149.44
300	86	183.7
300	87	338.1
300	88	490.2
300	89	675.6
300	90	828.7
300	91	926.8
300	92	988.9
300	93	1275.8
300	94	1789
300	95	1578.4
300	96	596.5
300	97	360.2
300	98	266.6
300	99	219.3
300	100	161.63
300	101	137.58
300	102	192.9
300	103	373.8
300	104	627.8
300	105	827.7
300	106	957.6
300	107	910.4
300	108	931.3
300	109	1242.4
300	110	1735.6
300	111	1638.7
300	112	638.9
300	113	331
300	114	247.2
300	115	191.7
300	116	138.92
300	117	124.24
300	118	205.7
300	119	473.1
300	120	676.7
300	121	860.2
300	122	936
300	123	916.7
300	124	1286.4
300	125	1825
300	126	1622.1
300	127	655.1
300	128	397.5
300	129	292
300	130	242.5
300	131	174.61
300	132	138.95
300	133	175.89
300	134	336.6
300	135	540.3
300	136	713.6
300	137	827.9
300	138	837.6
300	139	867.3
300	140	1217.4
300	141	1746.6
300	142	1685.4
300	143	709.3
300	144	386
300	145	289.1
300	146	216.5
300	147	163.35
300	148	172.53
300	149	283
300	150	396.5
300	151	531
300	152	651.5
300	153	762.2
300	154	881.3
300	155	1233.8
300	156	1810
300	157	1637.4
300	158	765.6
300	159	472
300	160	382.7
300	161	319.5
300	162	243.5
300	163	205.2
300	164	250.9
300	165	402.4
300	166	548.2
300	167	674.7
300	168	753.5
300	169	719.9
300	170	807.9
300	171	1020.8
300	172	1688.6
300	173	1740.1
300	174	792.1
300	175	456.5
300	176	423.1
300	177	334.6
300	178	271.7
300	179	285.9
300	180	374.3
300	181	522.2
300	182	616.4
300	183	726.5
300	184	788.8
300	185	805.1
300	186	1194.3
300	187	1813
300	188	1748.4
300	189	761.8
300	190	696.1
300	191	355.7
300	192	291.7
300	193	255.7
300	194	305.1
300	195	447.1
300	196	539.6
300	197	681.7
300	198	735
300	199	1150.2
300	200	1175.6
300	201	1828
300	202	1634
300	203	1686.2
300	204	671.4
300	205	600.3
300	206	306.7
300	207	322.4
300	208	404.1
300	209	623.6
300	210	699.9
300	211	1174
300	212	1205.9
300	213	1801
300	214	1718.9
300	215	1636.4
300	216	1641.6
300	217	575
300	218	567.4
300	219	445.2
300	220	568.6
300	221	1047.1
300	222	1131.7
300	223	1840
300	224	1782.8
300	225	1592.5
300	226	1604
300	227	732.6
300	228	975.2
300	229	994.2
300	230	1794.6
300	231	1758.7
300	232	1610.3
300	233	1738.8
300	234	1755.3
300	235	1651.2
300	236	160.58
300	237	75.71
300	238	31.22
300	239	99.08
400	1	1711.7
400	2	1871
400	3	1985
400	4	1923
400	5	1761.9
400	6	1796.3
400	7	935.6
400	8	1101.6
400	9	1396.6
400	10	2124
400	11	2091
400	12	1844
400	13	1883
400	14	806.2
400	15	886.3
400	16	657.3
400	17	969.8
400	18	1525.4
400	19	1621.6
400	20	2279
400	21	2203
400	22	1908
400	23	1951
400	24	890.3
400	25	882.7
400	26	448.5
400	27	627.1
400	28	821.4
400	29	1092.7
400	30	1243.1
400	31	1756.4
400	32	1776.9
400	33	2289
400	34	2172
400	35	2141
400	36	1059.1
400	37	944.1
400	38	389.4
400	39	357.6
400	40	374.7
400	41	607.5
400	42	847.9
400	43	980.3
400	44	1262.6
400	45	1344.7
400	46	1755.1
400	47	1745.9
400	48	2346
400	49	2200
400	50	1151.8
400	51	463.6
400	52	478.4
400	53	389.2
400	54	355.9
400	55	438.4
400	56	641.4
400	57	986.6
400	58	1141.6
400	59	1339.5
400	60	1468.9
400	61	1493.5
400	62	1780.8
400	63	2377
400	64	2160
400	65	1163.3
400	66	497.5
400	67	423.5
400	68	378.8
400	69	303.2
400	70	304.5
400	71	464.4
400	72	774
400	73	1014.7
400	74	1193.2
400	75	1265.4
400	76	1237.8
400	77	1498.9
400	78	1754.8
400	79	2309
400	80	2225
400	81	1173
400	82	479.1
400	83	360.2
400	84	287
400	85	239.6
400	86	327.8
400	87	567.6
400	88	783.4
400	89	1002.4
400	90	1150.6
400	91	1250.3
400	92	1518
400	93	1808
400	94	2400
400	95	2202
400	96	1167.3
400	97	509.5
400	98	388.7
400	99	331
400	100	254.6
400	101	227.7
400	102	346.2
400	103	641.9
400	104	981.6
400	105	1201.7
400	106	1302.5
400	107	1258.8
400	108	1486.6
400	109	1776.7
400	110	2355
400	111	2271
400	112	1218.7
400	113	491.2
400	114	365.4
400	115	281.5
400	116	213.4
400	117	209
400	118	373.3
400	119	784.3
400	120	1049.2
400	121	1246.4
400	122	1328.3
400	123	1514.9
400	124	1834
400	125	2432
400	126	2244
400	127	1232.9
400	128	562.6
400	129	429.6
400	130	370.6
400	131	278.4
400	132	232
400	133	313.2
400	134	582.4
400	135	870.3
400	136	1085.8
400	137	1179.2
400	138	1201.3
400	139	1444.4
400	140	1752
400	141	2368
400	142	2310
400	143	1287.3
400	144	581.4
400	145	436.4
400	146	339
400	147	262.6
400	148	298.6
400	149	480.5
400	150	648.1
400	151	832.7
400	152	962.1
400	153	1102.3
400	154	1455.3
400	155	1760.8
400	156	2421
400	157	2263
400	158	1338.8
400	159	648.6
400	160	557.5
400	161	476.5
400	162	363.1
400	163	315.1
400	164	411
400	165	633.3
400	166	830.3
400	167	990.3
400	168	1070.2
400	169	1019
400	170	1357.7
400	171	1558.1
400	172	2307
400	173	2361
400	174	1361.5
400	175	633.1
400	176	642.7
400	177	494
400	178	409.8
400	179	444.8
400	180	579.3
400	181	781.8
400	182	910.6
400	183	1198.4
400	184	1333.4
400	185	1351.1
400	186	1706.4
400	187	2420
400	188	2368
400	189	1327.8
400	190	1288.5
400	191	527
400	192	446.9
400	193	395.2
400	194	470.9
400	195	682.8
400	196	794.2
400	197	1210.9
400	198	1267.1
400	199	1691.9
400	200	1682.9
400	201	2432
400	202	2256
400	203	2320
400	204	1268.1
400	205	1203.4
400	206	468.5
400	207	495
400	208	587.9
400	209	1118.1
400	210	1234.8
400	211	1744.4
400	212	1743.7
400	213	2412
400	214	2329
400	215	2275
400	216	2297
400	217	1165.8
400	218	1165.6
400	219	815.5
400	220	1072.4
400	221	1627.8
400	222	1687.9
400	223	2454
400	224	2395
400	225	2234
400	226	2249
400	227	1313.6
400	228	1543.6
400	229	1561.5
400	230	2414
400	231	2381
400	232	2226
400	233	2362
400	234	2376
400	235	2280
400	236	266.7
400	237	149.16
400	238	60.42
400	239	171.71
500	1	2270
500	2	2424
500	3	2523
500	4	2470
500	5	2329
500	6	2367
500	7	1399
500	8	1571.2
500	9	1836
500	10	2657
500	11	2620
500	12	2393
500	13	2443
500	14	1300.6
500	15	1392.1
500	16	858.5
500	17	1467.9
500	18	1972
500	19	2046
500	20	2778
500	21	2697
500	22	2435
500	23	2485
500	24	1376.7
500	25	1387.5
500	26	643.1
500	27	849
500	28	1074
500	29	1590.8
500	30	1758.1
500	31	2173
500	32	2177
500	33	2771
500	34	2651
500	35	2635
500	36	1512.7
500	37	1437.8
500	38	544.6
500	39	527.4
500	40	537.4
500	41	814
500	42	1116.2
500	43	1275
500	44	1766.2
500	45	1832
500	46	2150
500	47	2157
500	48	2800
500	49	2689
500	50	1608.2
500	51	673.7
500	52	734.1
500	53	533.9
500	54	496.8
500	55	621.7
500	56	875.7
500	57	1270
500	58	1460.5
500	59	1832
500	60	1957
500	61	1951
500	62	2201
500	63	2823
500	64	2653
500	65	1623.1
500	66	724.4
500	67	565.9
500	68	506.3
500	69	418.6
500	70	445.6
500	71	677.3
500	72	1036.2
500	73	1303
500	74	1503.3
500	75	1616.3
500	76	1652.6
500	77	1956
500	78	2180
500	79	2763
500	80	2729
500	81	1661.3
500	82	707.4
500	83	505.7
500	84	400.3
500	85	349.1
500	86	502.6
500	87	825.2
500	88	1078
500	89	1320.2
500	90	1439.3
500	91	1662.1
500	92	1997
500	93	2233
500	94	2846
500	95	2697
500	96	1658
500	97	736.5
500	98	550.3
500	99	472.7
500	100	374.2
500	101	352.7
500	102	546.2
500	103	930.1
500	104	1308.6
500	105	1525.4
500	106	1598.4
500	107	1685.4
500	108	1963
500	109	2199
500	110	2803
500	111	2779
500	112	1722.4
500	113	733.5
500	114	524
500	115	402.1
500	116	312.5
500	117	326.4
500	118	592.5
500	119	1107.5
500	120	1397.7
500	121	1582.2
500	122	1751.5
500	123	1993
500	124	2255
500	125	2868
500	126	2736
500	127	1727.1
500	128	812.1
500	129	604.2
500	130	525.7
500	131	403.1
500	132	351.4
500	133	496.5
500	134	859.1
500	135	1204.1
500	136	1428.4
500	137	1498.8
500	138	1655.4
500	139	1922
500	140	2190
500	141	2810
500	142	2809
500	143	1781.8
500	144	850.1
500	145	605.9
500	146	464.7
500	147	368.7
500	148	452.9
500	149	711.2
500	150	926.7
500	151	1151.6
500	152	1261.8
500	153	1581.1
500	154	1935
500	155	2213
500	156	2855
500	157	2747
500	158	1812
500	159	927.6
500	160	734.4
500	161	631.6
500	162	490.2
500	163	444.6
500	164	597.7
500	165	887.9
500	166	1135.7
500	167	1381
500	168	1525.9
500	169	1476.2
500	170	1827
500	171	1991
500	172	2751
500	173	2833
500	174	1831
500	175	909
500	176	1012.7
500	177	673.6
500	178	555.3
500	179	618.5
500	180	802.3
500	181	1092.7
500	182	1320.9
500	183	1733.6
500	184	1836
500	185	1811
500	186	2190
500	187	2859
500	188	2832
500	189	1783.7
500	190	1770.2
500	191	760.4
500	192	671
500	193	556.9
500	194	663.1
500	195	1024.1
500	196	1184.8
500	197	1727.7
500	198	1757.6
500	199	2158
500	200	2161
500	201	2869
500	202	2729
500	203	2798
500	204	1745.2
500	205	1695.3
500	206	696.3
500	207	712.9
500	208	841.9
500	209	1643.6
500	210	1750.2
500	211	2223
500	212	2214
500	213	2854
500	214	2768
500	215	2748
500	216	2782
500	217	1643.8
500	218	1647.3
500	219	1309.9
500	220	1583
500	221	2097
500	222	2160
500	223	2892
500	224	2832
500	225	2710
500	226	2733
500	227	1768.6
500	228	2029
500	229	2037
500	230	2859
500	231	2823
500	232	2680
500	233	2811
500	234	2820
500	235	2738
500	236	397.6
500	237	244
500	238	104.39
500	239	270.1
600	1	21190
600	2	2829
600	3	2922
600	4	8386
600	5	8016
600	6	2783
600	7	1765.5
600	8	1943
600	9	2249
600	10	3044
600	11	3039
600	12	9171
600	13	2854
600	14	1684.8
600	15	1768.1
600	16	1151.6
600	17	1886
600	18	2372
600	19	2449
600	20	3151
600	21	3068
600	22	5900
600	23	2888
600	24	1759.2
600	25	1787.7
600	26	904.4
600	27	1103.2
600	28	1433
600	29	2030
600	30	2163
600	31	2589
600	32	2589
600	33	3141
600	34	3022
600	35	3020
600	36	1918
600	37	1821
600	38	793.3
600	39	784.2
600	40	692.6
600	41	1008
600	42	1495.9
600	43	1675.2
600	44	2166
600	45	2199
600	46	2571
600	47	2592
600	48	3176
600	49	3073
600	50	2028
600	51	1025.6
600	52	1132.1
600	53	720.7
600	54	654.1
600	55	812.6
600	56	1103.4
600	57	1607.5
600	58	1890
600	59	2239
600	60	2317
600	61	2291
600	62	2637
600	63	3200
600	64	3070
600	65	2043
600	66	1084.8
600	67	676.5
600	68	631.9
600	69	542.9
600	70	603.1
600	71	900.7
600	72	1301.2
600	73	1592.2
600	74	1890
600	75	2060
600	76	2077
600	77	2303
600	78	2612
600	79	3142
600	80	3121
600	81	2084
600	82	1048
600	83	620.5
600	84	512.6
600	85	465
600	86	692
600	87	1084.7
600	88	1358.3
600	89	1598.2
600	90	1723.4
600	91	2095
600	92	2338
600	93	2659
600	94	3221
600	95	3132
600	96	2085
600	97	1082.2
600	98	674
600	99	587.4
600	100	478.6
600	101	480
600	102	769.9
600	103	1221.9
600	104	1606.8
600	105	1812
600	106	1893
600	107	2110
600	108	2298
600	109	2624
600	110	3182
600	111	3173
600	112	2161
600	113	1091.7
600	114	654.3
600	115	510.7
600	116	412.5
600	117	463.4
600	118	833.4
600	119	1427.9
600	120	1708.2
600	121	1888
600	122	2164
600	123	2322
600	124	2674
600	125	3246
600	126	3168
600	127	2161
600	128	1170.5
600	129	739.9
600	130	647.6
600	131	509.9
600	132	468.4
600	133	704.9
600	134	1148.2
600	135	1530.6
600	136	1740.7
600	137	1827
600	138	2077
600	139	2268
600	140	2612
600	141	3194
600	142	3203
600	143	2218
600	144	1210.3
600	145	739.8
600	146	588.4
600	147	477
600	148	622.6
600	149	966
600	150	1222.1
600	151	1470.2
600	152	1579.2
600	153	2031
600	154	2286
600	155	2640
600	156	3238
600	157	3152
600	158	2254
600	159	1309.2
600	160	868.5
600	161	787.9
600	162	625.8
600	163	594.1
600	164	802.7
600	165	1155.8
600	166	1457
600	167	1873
600	168	2002
600	169	1928
600	170	2202
600	171	2432
600	172	3145
600	173	3225
600	174	2277
600	175	1294.4
600	176	1439.5
600	177	953.8
600	178	727.1
600	179	805
600	180	1051.3
600	181	1544.4
600	182	1804
600	183	2152
600	184	2223
600	185	2202
600	186	2624
600	187	3256
600	188	3226
600	189	2229
600	190	2216
600	191	1149.3
600	192	1068
600	193	715.3
600	194	855.6
600	195	1486.4
600	196	1648.7
600	197	2125
600	198	2143
600	199	2609
600	200	2599
600	201	3267
600	202	3127
600	203	3193
600	204	2199
600	205	2163
600	206	1088.6
600	207	1078.5
600	208	1244.7
600	209	2058
600	210	2151
600	211	2674
600	212	2659
600	213	3241
600	214	3158
600	215	3255
600	216	3176
600	217	2113
600	218	2096
600	219	1725.3
600	220	1976
600	221	2561
600	222	2606
600	223	3279
600	224	3219
600	225	3484
600	226	3127
600	227	2230
600	228	2481
600	229	2491
600	230	3247
600	231	3210
600	232	3165
600	233	3212
600	234	3222
600	235	3206
600	236	577.8
600	237	352.5
600	238	162.98
600	239	358.8
700	1	
700	2	3202
700	3	3298
700	4	131340
700	5	140350
700	6	3144
700	7	2165
700	8	2344
700	9	2666
700	10	3400
700	11	94970
700	12	131720
700	13	3222
700	14	2098
700	15	2159
700	16	1543.9
700	17	2214
700	18	2781
700	19	2851
700	20	3506
700	21	86030
700	22	121620
700	23	3253
700	24	2184
700	25	2211
700	26	1300.7
700	27	1475.6
700	28	1830
700	29	2364
700	30	2490
700	31	2986
700	32	2986
700	33	3503
700	34	62370
700	35	3386
700	36	2340
700	37	2234
700	38	1177.1
700	39	1192.2
700	40	865.5
700	41	1218.3
700	42	1902
700	43	2073
700	44	2484
700	45	2520
700	46	2961
700	47	2964
700	48	3546
700	49	3437
700	50	2440
700	51	1401
700	52	1563.1
700	53	1169.6
700	54	966.6
700	55	1143.6
700	56	1339.1
700	57	2017
700	58	2292
700	59	2563
700	60	2649
700	61	2653
700	62	2996
700	63	3566
700	64	69750
700	65	2444
700	66	1464.6
700	67	795.6
700	68	954.9
700	69	970.1
700	70	814.1
700	71	1130
700	72	1563
700	73	1897
700	74	2296
700	75	2434
700	76	2415
700	77	2666
700	78	2964
700	79	18930
700	80	3492
700	81	2499
700	82	1438.3
700	83	762.9
700	84	633.9
700	85	602.5
700	86	903.1
700	87	1339.5
700	88	1618.7
700	89	1887
700	90	2059
700	91	2438
700	92	2677
700	93	3006
700	94	3582
700	95	75950
700	96	2499
700	97	1480.4
700	98	823.6
700	99	725.3
700	100	599.2
700	101	629
700	102	1006.6
700	103	1495.4
700	104	1882
700	105	2102
700	106	2243
700	107	2431
700	108	2640
700	109	2967
700	110	6366
700	111	3541
700	112	2584
700	113	1504
700	114	825.9
700	115	653.2
700	116	539.2
700	117	629
700	118	1081.9
700	119	1717.2
700	120	1976
700	121	2231
700	122	2484
700	123	2661
700	124	3014
700	125	3604
700	126	74680
700	127	2569
700	128	1575.3
700	129	910
700	130	804.9
700	131	639.6
700	132	606.4
700	133	937.7
700	134	1432.2
700	135	1822
700	136	2078
700	137	2187
700	138	2392
700	139	2620
700	140	2950
700	141	4238
700	142	3571
700	143	2631
700	144	1603.1
700	145	912.9
700	146	732.4
700	147	610.8
700	148	822
700	149	1235.4
700	150	1509.8
700	151	1809
700	152	1962
700	153	2358
700	154	2641
700	155	2975
700	156	3593
700	157	62750
700	158	2656
700	159	1695.3
700	160	1019.7
700	161	2376
700	162	849.3
700	163	977.3
700	164	1032.5
700	165	1476.4
700	166	1867
700	167	2290
700	168	2363
700	169	2272
700	170	2582
700	171	2791
700	172	11398
700	173	3584
700	174	2673
700	175	1682
700	176	1836
700	177	1385
700	178	924.3
700	179	1006.9
700	180	1401.3
700	181	1999
700	182	2221
700	183	2519
700	184	2607
700	185	2595
700	186	2960
700	187	3613
700	188	3587
700	189	2633
700	190	2623
700	191	1558.4
700	192	1504.7
700	193	886.3
700	194	1101.1
700	195	1917
700	196	2051
700	197	2513
700	198	2530
700	199	2964
700	200	2940
700	201	3623
700	202	66240
700	203	3561
700	204	2612
700	205	2600
700	206	1503.9
700	207	1482.8
700	208	1657.1
700	209	2465
700	210	2549
700	211	3029
700	212	3005
700	213	3600
700	214	30930
700	215	82060
700	216	3552
700	217	2536
700	218	2512
700	219	2091
700	220	2390
700	221	2936
700	222	2962
700	223	3639
700	224	9184
700	225	98920
700	226	3501
700	227	2620
700	228	2846
700	229	2855
700	230	3610
700	231	10683
700	232	83790
700	233	3580
700	234	3589
700	235	82840
700	236	892.4
700	237	465.7
700	238	229.1
700	239	441.6
800	1	
800	2	3623
800	3	3705
800	4	
800	5	
800	6	3535
800	7	2574
800	8	2741
800	9	3015
800	10	3773
800	11	
800	12	
800	13	3608
800	14	2561
800	15	2574
800	16	1904
800	17	2557
800	18	3135
800	19	3196
800	20	3876
800	21	
800	22	
800	23	3638
800	24	6420
800	25	4486
800	26	5460
800	27	2968
800	28	2169
800	29	2699
800	30	2835
800	31	3313
800	32	3312
800	33	3863
800	34	
800	35	3750
800	36	2767
800	37	2637
800	38	1592
800	39	1912
800	40	1226.2
800	41	1484.7
800	42	2244
800	43	2395
800	44	2820
800	45	2868
800	46	3278
800	47	3266
800	48	3889
800	49	3790
800	50	2858
800	51	1771.8
800	52	116760
800	53	117100
800	54	125670
800	55	119530
800	56	1612.7
800	57	2394
800	58	2610
800	59	2897
800	60	3001
800	61	3005
800	62	3285
800	63	3903
800	64	
800	65	2830
800	66	1831
800	67	965.8
800	68	147640
800	69	128880
800	70	117510
800	71	1368.4
800	72	1864
800	73	2257
800	74	2633
800	75	2714
800	76	2695
800	77	3005
800	78	3251
800	79	
800	80	3876
800	81	2926
800	82	1842
800	83	1800
800	84	993.8
800	85	788.8
800	86	1141.8
800	87	1598.2
800	88	1874
800	89	2228
800	90	2403
800	91	2704
800	92	3010
800	93	3291
800	94	3905
800	95	
800	96	2938
800	97	1894
800	98	1021.4
800	99	9173
800	100	10161
800	101	5876
800	102	1261.7
800	103	1755
800	104	2138
800	105	2430
800	106	2568
800	107	2688
800	108	2972
800	109	3250
800	110	129330
800	111	3926
800	112	3023
800	113	1926
800	114	1074.3
800	115	846.5
800	116	697.8
800	117	837.4
800	118	1353.1
800	119	1976
800	120	2233
800	121	2552
800	122	2741
800	123	2988
800	124	3295
800	125	3921
800	126	
800	127	3003
800	128	1990
800	129	1119.4
800	130	3752
800	131	985.7
800	132	1922
800	133	1191.4
800	134	1715.4
800	135	2097
800	136	2427
800	137	2510
800	138	2658
800	139	2944
800	140	3234
800	141	117320
800	142	3946
800	143	3052
800	144	2004
800	145	2148
800	146	2622
800	147	861.5
800	148	1060.4
800	149	1502.7
800	150	1789.4
800	151	2178
800	152	2322
800	153	2629
800	154	2965
800	155	3256
800	156	3903
800	157	
800	158	3040
800	159	2068
800	160	1248.6
800	161	134590
800	162	128790
800	163	127430
800	164	1273
800	165	1884
800	166	43900
800	167	33530
800	168	2700
800	169	2577
800	170	2916
800	171	3085
800	172	
800	173	3929
800	174	3052
800	175	2051
800	176	80780
800	177	67280
800	178	75190
800	179	74870
800	180	1804
800	181	2396
800	182	2544
800	183	2880
800	184	2952
800	185	2934
800	186	3254
800	187	3930
800	188	3934
800	189	3040
800	190	3006
800	191	1939
800	192	1909
800	193	1081.7
800	194	1461
800	195	2267
800	196	2381
800	197	2874
800	198	2879
800	199	3257
800	200	3235
800	201	3943
800	202	
800	203	3918
800	204	3052
800	205	2994
800	206	1959
800	207	1892
800	208	2026
800	209	2840
800	210	2908
800	211	3321
800	212	3293
800	213	3915
800	214	
800	215	
800	216	3927
800	217	2918
800	218	2948
800	219	2513
800	220	2766
800	221	3243
800	222	3261
800	223	3957
800	224	143110
800	225	
800	226	3869
800	227	2980
800	228	3152
800	229	3159
800	230	3934
800	231	
800	232	
800	233	3909
800	234	3918
800	235	
800	236	1232.2
800	237	601
800	238	325.7
800	239	547.2
900	1	
900	2	182600
900	3	137180
900	4	
900	5	
900	6	164780
900	7	161560
900	8	101920
900	9	3334
900	10	10267
900	11	
900	12	
900	13	160130
900	14	187200
900	15	184900
900	16	127050
900	17	2912
900	18	3447
900	19	3513
900	20	4322
900	21	
900	22	
900	23	145730
900	24	153980
900	25	157470
900	26	161150
900	27	159240
900	28	2456
900	29	3046
900	30	3173
900	31	3607
900	32	3604
900	33	4274
900	34	
900	35	120980
900	36	146500
900	37	145800
900	38	94500
900	39	94480
900	40	98280
900	41	11252
900	42	2530
900	43	2670
900	44	3149
900	45	3194
900	46	3567
900	47	3554
900	48	6842
900	49	112460
900	50	138020
900	51	162370
900	52	
900	53	
900	54	
900	55	
900	56	93970
900	57	201400
900	58	174020
900	59	146360
900	60	121770
900	61	3304
900	62	3569
900	63	4448
900	64	
900	65	141510
900	66	161520
900	67	197900
900	68	
900	69	
900	70	
900	71	128200
900	72	2214
900	73	204000
900	74	193620
900	75	183150
900	76	2989
900	77	3292
900	78	3543
900	79	
900	80	103760
900	81	145860
900	82	194100
900	83	181100
900	84	102990
900	85	89030
900	86	77770
900	87	1849
900	88	2142
900	89	2552
900	90	2706
900	91	2977
900	92	3301
900	93	3571
900	94	4209
900	95	
900	96	148200
900	97	186200
900	98	218600
900	99	195600
900	100	
900	101	160600
900	102	121550
900	103	1998
900	104	2409
900	105	2737
900	106	2837
900	107	2969
900	108	3254
900	109	3531
900	110	
900	111	101130
900	112	156870
900	113	191800
900	114	220500
900	115	225400
900	116	209300
900	117	187700
900	118	106750
900	119	2214
900	120	2520
900	121	2824
900	122	3020
900	123	3268
900	124	3576
900	125	4219
900	126	
900	127	145170
900	128	165030
900	129	208000
900	130	181100
900	131	158910
900	132	160380
900	133	137850
900	134	1971
900	135	2399
900	136	2728
900	137	2774
900	138	2942
900	139	3218
900	140	3518
900	141	
900	142	87910
900	143	143020
900	144	164280
900	145	181900
900	146	121050
900	147	113510
900	148	99540
900	149	1784.1
900	150	2097
900	151	2505
900	152	2616
900	153	2915
900	154	3235
900	155	3539
900	156	4190
900	157	
900	158	128390
900	159	154410
900	160	157440
900	161	
900	162	
900	163	
900	164	73430
900	165	2282
900	166	
900	167	
900	168	231000
900	169	2881
900	170	3187
900	171	3382
900	172	
900	173	87790
900	174	133060
900	175	147370
900	176	
900	177	
900	178	
900	179	
900	180	2189
900	181	229500
900	182	226800
900	183	213400
900	184	170370
900	185	3210
900	186	3552
900	187	4276
900	188	84090
900	189	144230
900	190	124830
900	191	66930
900	192	49350
900	193	58000
900	194	62050
900	195	2607
900	196	2716
900	197	3175
900	198	3169
900	199	3554
900	200	3530
900	201	4284
900	202	
900	203	89810
900	204	147560
900	205	129010
900	206	144850
900	207	152850
900	208	119100
900	209	3158
900	210	3205
900	211	3623
900	212	3588
900	213	4233
900	214	
900	215	
900	216	124260
900	217	189800
900	218	211100
900	219	164150
900	220	3083
900	221	3570
900	222	3568
900	223	4280
900	224	
900	225	
900	226	139030
900	227	150850
900	228	3499
900	229	3499
900	230	4288
900	231	
900	232	
900	233	46400
900	234	29540
900	235	
900	236	128300
900	237	160150
900	238	188000
900	239	139360
1000	1	
1000	2	
1000	3	
1000	4	
1000	5	
1000	6	
1000	7	
1000	8	
1000	9	9738
1000	10	
1000	11	
1000	12	
1000	13	
1000	14	
1000	15	
1000	16	
1000	17	52380
1000	18	3852
1000	19	4051
1000	20	157840
1000	21	
1000	22	
1000	23	
1000	24	
1000	25	
1000	26	
1000	27	
1000	28	89510
1000	29	3377
1000	30	3483
1000	31	3980
1000	32	3940
1000	33	130410
1000	34	
1000	35	
1000	36	
1000	37	
1000	38	
1000	39	
1000	40	
1000	41	
1000	42	67700
1000	43	2970
1000	44	3452
1000	45	3483
1000	46	3925
1000	47	3871
1000	48	157640
1000	49	
1000	50	
1000	51	
1000	52	
1000	53	
1000	54	
1000	55	
1000	56	
1000	57	
1000	58	
1000	59	
1000	60	
1000	61	3560
1000	62	3880
1000	63	144090
1000	64	
1000	65	
1000	66	
1000	67	
1000	68	
1000	69	
1000	70	
1000	71	
1000	72	50310
1000	73	
1000	74	
1000	75	
1000	76	3286
1000	77	3543
1000	78	3892
1000	79	
1000	80	
1000	81	
1000	82	
1000	83	
1000	84	
1000	85	
1000	86	
1000	87	66380
1000	88	2449
1000	89	2833
1000	90	2957
1000	91	3263
1000	92	3554
1000	93	3873
1000	94	24210
1000	95	
1000	96	
1000	97	
1000	98	
1000	99	
1000	100	
1000	101	
1000	102	
1000	103	39840
1000	104	2701
1000	105	3004
1000	106	3068
1000	107	3259
1000	108	3499
1000	109	3833
1000	110	
1000	111	
1000	112	
1000	113	
1000	114	
1000	115	
1000	116	
1000	117	
1000	118	
1000	119	2449
1000	120	2811
1000	121	3060
1000	122	3311
1000	123	3514
1000	124	3876
1000	125	7803
1000	126	
1000	127	
1000	128	
1000	129	
1000	130	
1000	131	
1000	132	
1000	133	
1000	134	54230
1000	135	2698
1000	136	2975
1000	137	3007
1000	138	3226
1000	139	3460
1000	140	3814
1000	141	
1000	142	
1000	143	
1000	144	
1000	145	
1000	146	
1000	147	
1000	148	
1000	149	67280
1000	150	2434
1000	151	2784
1000	152	2859
1000	153	3195
1000	154	3474
1000	155	3826
1000	156	5297
1000	157	
1000	158	
1000	159	
1000	160	
1000	161	
1000	162	
1000	163	
1000	164	
1000	165	2622
1000	166	
1000	167	
1000	168	
1000	169	3169
1000	170	3430
1000	171	3750
1000	172	
1000	173	
1000	174	
1000	175	
1000	176	
1000	177	
1000	178	
1000	179	
1000	180	32960
1000	181	
1000	182	
1000	183	
1000	184	
1000	185	3459
1000	186	3873
1000	187	117490
1000	188	
1000	189	
1000	190	
1000	191	
1000	192	
1000	193	
1000	194	
1000	195	48680
1000	196	3039
1000	197	3438
1000	198	3421
1000	199	3894
1000	200	3830
1000	201	122030
1000	202	
1000	203	
1000	204	
1000	205	
1000	206	
1000	207	
1000	208	
1000	209	3443
1000	210	3468
1000	211	3980
1000	212	3919
1000	213	22410
1000	214	
1000	215	
1000	216	
1000	217	
1000	218	
1000	219	
1000	220	99310
1000	221	4044
1000	222	3934
1000	223	31410
1000	224	
1000	225	
1000	226	
1000	227	
1000	228	99980
1000	229	4301
1000	230	120520
1000	231	
1000	232	
1000	233	
1000	234	
1000	235	
1000	236	
1000	237	
1000	238	
1000	239	
