Converting 2001.csv
#Voltage        #Pad    #Current
100	1	133.58
100	2	175.14
100	3	198.9
100	4	165.21
100	5	140.94
100	6	178.21
100	7	149.8
100	8	188.7
100	9	242.5
100	10	242.3
100	11	185
100	12	159.31
100	13	188.8
100	14	149.89
100	15	148.89
100	16	172.78
100	17	268.9
100	18	315.6
100	19	313.7
100	20	286.4
100	21	215.1
100	22	186.1
100	23	225.7
100	24	195.7
100	25	173.59
100	26	155.08
100	27	166.29
100	28	243.4
100	29	320.9
100	30	366.6
100	31	370.1
100	32	356.9
100	33	313.5
100	34	234.9
100	35	277.4
100	36	216.8
100	37	190.5
100	38	156.32
100	39	133.71
100	40	124.02
100	41	147.34
100	42	228.1
100	43	271.9
100	44	297
100	45	312.2
100	46	345.5
100	47	325.8
100	48	352.5
100	49	301.5
100	50	248.1
100	51	193.5
100	52	193.3
100	53	167.64
100	54	147.89
100	55	131
100	56	154.84
100	57	294.7
100	58	354.1
100	59	393.4
100	60	416.7
100	61	401.5
100	62	374.6
100	63	373.5
100	64	244.9
100	65	246.3
100	66	201
100	67	154.51
100	68	151.63
100	69	132.87
100	70	119.84
100	71	116.79
100	72	214.6
100	73	300.3
100	74	350.9
100	75	398.7
100	76	414.2
100	77	419
100	78	370
100	79	315.1
100	80	296
100	81	219.5
100	82	160.75
100	83	132.86
100	84	114.33
100	85	100.53
100	86	105.69
100	87	163.32
100	88	200.6
100	89	241.2
100	90	278.1
100	91	346.4
100	92	406.4
100	93	423.4
100	94	430.2
100	95	233
100	96	215.4
100	97	170.29
100	98	132.25
100	99	129.56
100	100	111.49
100	101	101.44
100	102	108.5
100	103	186.9
100	104	280.3
100	105	329.5
100	106	386.9
100	107	391.3
100	108	428.2
100	109	387.1
100	110	334
100	111	276.9
100	112	192.5
100	113	139.41
100	114	112.63
100	115	95.06
100	116	83.35
100	117	78.32
100	118	118.68
100	119	233.3
100	120	305.2
100	121	363.2
100	122	394.9
100	123	421.4
100	124	436.5
100	125	448.8
100	126	226.4
100	127	192.6
100	128	154.08
100	129	120.94
100	130	117.17
100	131	101.66
100	132	93.54
100	133	102.54
100	134	189.2
100	135	286.8
100	136	344.8
100	137	405.3
100	138	413
100	139	442.3
100	140	396.4
100	141	351.9
100	142	272.6
100	143	178.84
100	144	133.57
100	145	112.33
100	146	97.99
100	147	88.85
100	148	100.53
100	149	172.83
100	150	216.9
100	151	261.8
100	152	305.4
100	153	385.3
100	154	444
100	155	448.5
100	156	453.1
100	157	229.6
100	158	189.2
100	159	158.25
100	160	126.35
100	161	130.12
100	162	114.55
100	163	109.94
100	164	135.65
100	165	244.8
100	166	345.1
100	167	404.6
100	168	469.3
100	169	474.1
100	170	482.7
100	171	368.3
100	172	329.8
100	173	296
100	174	189.6
100	175	152.91
100	176	156.33
100	177	136.87
100	178	127.26
100	179	146.75
100	180	221.6
100	181	330.1
100	182	417.5
100	183	475.7
100	184	518.1
100	185	500.1
100	186	455.2
100	187	466
100	188	298.2
100	189	173.66
100	190	160.2
100	191	135.74
100	192	122.25
100	193	118.85
100	194	143.66
100	195	249.5
100	196	323.3
100	197	379.6
100	198	428.6
100	199	490.3
100	200	453.3
100	201	505.3
100	202	222.6
100	203	258.8
100	204	171.11
100	205	157.92
100	206	145.83
100	207	140.31
100	208	203.4
100	209	400.6
100	210	475.1
100	211	529.9
100	212	530.3
100	213	531.6
100	214	408.4
100	215	207.9
100	216	225.8
100	217	145.25
100	218	148.49
100	219	198.6
100	220	349.7
100	221	434.7
100	222	457.7
100	223	522.7
100	224	417.7
100	225	205.7
100	226	242.1
100	227	202.1
100	228	308.1
100	229	347.2
100	230	441.3
100	231	358.3
100	232	227.3
100	233	350.4
100	234	382.6
100	235	307.3
100	236	25.82
100	237	16.137
100	238	12.854
100	239	21.41
200	1	880.3
200	2	1108.2
200	3	1230.1
200	4	1081.4
200	5	964.7
200	6	1009.3
200	7	374.4
200	8	516.5
200	9	648.2
200	10	1361.6
200	11	1282.4
200	12	1071.3
200	13	1104.1
200	14	362.9
200	15	399.7
200	16	506.5
200	17	702.4
200	18	803.4
200	19	815.5
200	20	1579.5
200	21	1420.4
200	22	1147.9
200	23	1232.4
200	24	459
200	25	445.9
200	26	403.6
200	27	483.5
200	28	652.9
200	29	823
200	30	906.5
200	31	980.6
200	32	941.9
200	33	1629.1
200	34	1456.3
200	35	1500.9
200	36	500.1
200	37	488.1
200	38	413.3
200	39	357.6
200	40	345.4
200	41	461
200	42	662.7
200	43	769.4
200	44	863.8
200	45	880.7
200	46	923.9
200	47	868.1
200	48	1800
200	49	1589.5
200	50	563.3
200	51	484.6
200	52	503
200	53	441.6
200	54	392.4
200	55	395.1
200	56	506.1
200	57	822.3
200	58	957.4
200	59	1044.6
200	60	1051.3
200	61	958.8
200	62	940.7
200	63	1877
200	64	1476.9
200	65	552.3
200	66	489.8
200	67	422.5
200	68	414
200	69	365.2
200	70	340.9
200	71	405.7
200	72	648.9
200	73	859.1
200	74	1004.3
200	75	1098.9
200	76	1051.3
200	77	993.2
200	78	967
200	79	1774.4
200	80	1574.6
200	81	540.3
200	82	411.2
200	83	346.5
200	84	306.6
200	85	276.7
200	86	312.4
200	87	494.3
200	88	639.9
200	89	787.7
200	90	937.3
200	91	1041.4
200	92	1074.5
200	93	1081.2
200	94	1990
200	95	1507.3
200	96	500.4
200	97	427.1
200	98	338.5
200	99	327.2
200	100	288.3
200	101	268.8
200	102	342.6
200	103	578.6
200	104	861.8
200	105	1052
200	106	1190.6
200	107	1108
200	108	1077.6
200	109	1054
200	110	1875
200	111	1582
200	112	520.2
200	113	354.6
200	114	291.3
200	115	261.4
200	116	228.7
200	117	236.5
200	118	390.6
200	119	739.6
200	120	949.9
200	121	1143.6
200	122	1205.9
200	123	1126
200	124	1165.8
200	125	2087
200	126	1538.3
200	127	458.2
200	128	383.2
200	129	305.2
200	130	292.7
200	131	257.5
200	132	245.7
200	133	343.4
200	134	593
200	135	897.1
200	136	1108.2
200	137	1260.2
200	138	1170.9
200	139	1128.2
200	140	1114.1
200	141	1936
200	142	1613.6
200	143	464.3
200	144	343.9
200	145	291.4
200	146	260.9
200	147	240.7
200	148	308.6
200	149	520
200	150	694.7
200	151	868.4
200	152	1039.8
200	153	1170.6
200	154	1217.2
200	155	1217
200	156	2109
200	157	1562.1
200	158	461.3
200	159	393.7
200	160	346.7
200	161	352.2
200	162	315.2
200	163	324
200	164	445.6
200	165	732.7
200	166	988.7
200	167	1176.8
200	168	1300.1
200	169	1252.9
200	170	1178
200	171	981.2
200	172	1865
200	173	1747.9
200	174	474.3
200	175	390.9
200	176	410.5
200	177	369.5
200	178	351.2
200	179	438.9
200	180	661.1
200	181	959
200	182	1148.1
200	183	1283.7
200	184	1302.1
200	185	1203.3
200	186	1197.3
200	187	2119
200	188	1764.8
200	189	445.1
200	190	441.4
200	191	356.6
200	192	322.6
200	193	335
200	194	462.3
200	195	781.8
200	196	973.8
200	197	1130.6
200	198	1188.2
200	199	1272.7
200	200	1190.2
200	201	2175
200	202	1573.5
200	203	1647.3
200	204	438.9
200	205	429.3
200	206	368.7
200	207	424.7
200	208	653
200	209	1079.4
200	210	1217.3
200	211	1381.4
200	212	1370.7
200	213	2205
200	214	1984
200	215	1577.7
200	216	1572.5
200	217	386.6
200	218	443.7
200	219	613.9
200	220	919.9
200	221	1160.1
200	222	1234.4
200	223	2290
200	224	2106
200	225	1560.7
200	226	1612.5
200	227	569.6
200	228	857.3
200	229	958.3
200	230	2123
200	231	2019
200	232	1616.9
200	233	1912
200	234	1991
200	235	1806
200	236	104.45
200	237	66.53
200	238	49.47
200	239	93.13
300	1	2093
300	2	2313
300	3	2476
300	4	2359
300	5	2193
300	6	2250
300	7	787.7
300	8	995.7
300	9	1335.7
300	10	2688
300	11	2593
300	12	2326
300	13	2390
300	14	756.5
300	15	857.4
300	16	891
300	17	1152.6
300	18	1548.5
300	19	1622
300	20	2920
300	21	2731
300	22	2380
300	23	2494
300	24	880.3
300	25	872
300	26	731.4
300	27	879.6
300	28	1089.4
300	29	1373.6
300	30	1454.7
300	31	1885
300	32	1892
300	33	2894
300	34	2677
300	35	2754
300	36	1044.6
300	37	959.7
300	38	712
300	39	639.3
300	40	638.7
300	41	856.6
300	42	1144.1
300	43	1281
300	44	1456.1
300	45	1477.2
300	46	1875
300	47	1941
300	48	3025
300	49	2852
300	50	1188.9
300	51	838.2
300	52	847.7
300	53	762.2
300	54	692.8
300	55	744.1
300	56	933
300	57	1372
300	58	1557.1
300	59	1681.5
300	60	1685.6
300	61	1552.9
300	62	2073
300	63	3118
300	64	2748
300	65	1173.7
300	66	859.2
300	67	767.4
300	68	724.1
300	69	640
300	70	639.4
300	71	792.3
300	72	1157.4
300	73	1502.2
300	74	1705
300	75	1791
300	76	1628.4
300	77	1623.1
300	78	2117
300	79	3016
300	80	2875
300	81	1163.5
300	82	756.7
300	83	649.5
300	84	571
300	85	524.2
300	86	627.4
300	87	958.9
300	88	1213.8
300	89	1481.9
300	90	1667.5
300	91	1760.5
300	92	1788.8
300	93	2262
300	94	3246
300	95	2810
300	96	1088.7
300	97	763.9
300	98	628.2
300	99	606.1
300	100	531.8
300	101	519.9
300	102	691.9
300	103	1106.3
300	104	1566.8
300	105	1858
300	106	1993
300	107	1862
300	108	1791.2
300	109	2279
300	110	3166
300	111	2904
300	112	1302.1
300	113	679
300	114	577.3
300	115	534.4
300	116	475.6
300	117	508.3
300	118	778.1
300	119	1414.1
300	120	1793
300	121	2074
300	122	2109
300	123	1926
300	124	2486
300	125	3420
300	126	2847
300	127	1058
300	128	692.3
300	129	570
300	130	544.9
300	131	480
300	132	485.6
300	133	696.3
300	134	1143
300	135	1657.7
300	136	1985
300	137	2159
300	138	2000
300	139	1925
300	140	2415
300	141	3274
300	142	2931
300	143	1104.1
300	144	631.1
300	145	546.9
300	146	485.6
300	147	464.5
300	148	618.9
300	149	1008.4
300	150	1323.3
300	151	1635.2
300	152	1869
300	153	2001
300	154	2045
300	155	2510
300	156	3430
300	157	2863
300	158	1174.1
300	159	684.5
300	160	622.9
300	161	617.9
300	162	567.9
300	163	609.8
300	164	859.2
300	165	1337.2
300	166	1736.9
300	167	2003
300	168	2125
300	169	1943
300	170	1909
300	171	2079
300	172	3150
300	173	3062
300	174	1213.4
300	175	665.2
300	176	698.6
300	177	645.6
300	178	642.2
300	179	842
300	180	1207.1
300	181	1643.4
300	182	1885
300	183	2073
300	184	2080
300	185	1959
300	186	2493
300	187	3457
300	188	3089
300	189	1184.4
300	190	1082.4
300	191	615.2
300	192	589.9
300	193	645.7
300	194	915.8
300	195	1382.8
300	196	1656.1
300	197	1909
300	198	1964
300	199	2531
300	200	2490
300	201	3511
300	202	2879
300	203	2969
300	204	1086
300	205	1026.9
300	206	654.3
300	207	833
300	208	1185
300	209	1784.7
300	210	1971
300	211	2698
300	212	2701
300	213	3557
300	214	3295
300	215	2920
300	216	2947
300	217	1035.4
300	218	1148.5
300	219	1137.4
300	220	1546.3
300	221	2384
300	222	2537
300	223	3698
300	224	3498
300	225	2897
300	226	2971
300	227	1451.1
300	228	2041
300	229	2168
300	230	3532
300	231	3420
300	232	2940
300	233	3276
300	234	3356
300	235	3178
300	236	280.2
300	237	214
300	238	162.78
300	239	303.5
400	1	3171
400	2	3479
400	3	3685
400	4	3544
400	5	3313
400	6	3386
400	7	1698.5
400	8	1968
400	9	2481
400	10	3917
400	11	3830
400	12	3480
400	13	3571
400	14	1593.7
400	15	1718.6
400	16	1237.8
400	17	1753.8
400	18	2745
400	19	2838
400	20	4177
400	21	3990
400	22	3539
400	23	3674
400	24	1797.6
400	25	1789.4
400	26	1083.4
400	27	1302.1
400	28	1555.6
400	29	2017
400	30	2172
400	31	3121
400	32	3085
400	33	4154
400	34	3911
400	35	3997
400	36	2031
400	37	1906
400	38	1032.5
400	39	960.5
400	40	982
400	41	1284.7
400	42	1645
400	43	1803
400	44	2187
400	45	2256
400	46	3031
400	47	2992
400	48	4306
400	49	4101
400	50	2181
400	51	1150.1
400	52	1225.1
400	53	1082.8
400	54	1022.5
400	55	1124.3
400	56	1383
400	57	1949
400	58	2162
400	59	2408
400	60	2573
400	61	2519
400	62	3122
400	63	4402
400	64	3988
400	65	2168
400	66	1164.2
400	67	1093.4
400	68	1052.6
400	69	935.8
400	70	967.7
400	71	1223.9
400	72	1711.1
400	73	2139
400	74	2392
400	75	2443
400	76	2236
400	77	2646
400	78	3151
400	79	4295
400	80	4122
400	81	2184
400	82	1107.8
400	83	957.4
400	84	855.2
400	85	796.3
400	86	1009.5
400	87	1483.2
400	88	1830
400	89	2166
400	90	2353
400	91	2435
400	92	2830
400	93	3357
400	94	4535
400	95	4062
400	96	2117
400	97	1069.6
400	98	911.2
400	99	899.1
400	100	803.6
400	101	810.6
400	102	1104.2
400	103	1734
400	104	2338
400	105	2677
400	106	2761
400	107	2610
400	108	2872
400	109	3373
400	110	4470
400	111	4194
400	112	2343
400	113	1007.7
400	114	841.8
400	115	764.5
400	116	709.3
400	117	804.8
400	118	1237
400	119	2150
400	120	2635
400	121	2927
400	122	2959
400	123	3111
400	124	3634
400	125	4703
400	126	4102
400	127	2094
400	128	987.1
400	129	827.3
400	130	808.1
400	131	734.5
400	132	776.4
400	133	1120.1
400	134	1784.8
400	135	2463
400	136	2841
400	137	2966
400	138	2792
400	139	3046
400	140	3508
400	141	4569
400	142	4198
400	143	2147
400	144	949.8
400	145	809.9
400	146	734.2
400	147	719.8
400	148	1003.5
400	149	1580.9
400	150	2001
400	151	2393
400	152	2630
400	153	2765
400	154	3173
400	155	3604
400	156	4710
400	157	4128
400	158	2216
400	159	972
400	160	904.6
400	161	905.6
400	162	845.5
400	163	921.8
400	164	1346.1
400	165	1992
400	166	2486
400	167	2793
400	168	2867
400	169	2624
400	170	3013
400	171	3172
400	172	4411
400	173	4332
400	174	2253
400	175	955.6
400	176	1062.4
400	177	946.5
400	178	971.6
400	179	1296.1
400	180	1785.7
400	181	2337
400	182	2632
400	183	3022
400	184	3160
400	185	3061
400	186	3549
400	187	4714
400	188	4355
400	189	2220
400	190	2167
400	191	921.4
400	192	909.1
400	193	1017.3
400	194	1398.2
400	195	2006
400	196	2309
400	197	2974
400	198	3020
400	199	3679
400	200	3539
400	201	4762
400	202	4148
400	203	4256
400	204	2175
400	205	2137
400	206	1014.2
400	207	1276.3
400	208	1690.5
400	209	2785
400	210	3040
400	211	3905
400	212	3836
400	213	4841
400	214	4554
400	215	4212
400	216	4272
400	217	2136
400	218	2307
400	219	1897
400	220	2564
400	221	3596
400	222	3711
400	223	5002
400	224	4788
400	225	4193
400	226	4274
400	227	2591
400	228	3206
400	229	3327
400	230	4849
400	231	4745
400	232	4194
400	233	4579
400	234	4656
400	235	4479
400	236	468.8
400	237	395.6
400	238	297.7
400	239	533.3
500	1	4297
500	2	4615
500	3	4810
500	4	4687
500	5	4473
500	6	4556
500	7	2588
500	8	2887
500	9	3364
500	10	5073
500	11	4976
500	12	4606
500	13	4732
500	14	2532
500	15	2674
500	16	1640.7
500	17	2715
500	18	3668
500	19	3738
500	20	5281
500	21	5075
500	22	4636
500	23	4788
500	24	2728
500	25	2763
500	26	1490
500	27	1751.8
500	28	2045
500	29	3011
500	30	3241
500	31	4030
500	32	3965
500	33	5213
500	34	4947
500	35	5038
500	36	2886
500	37	2838
500	38	1388.2
500	39	1341.9
500	40	1346.5
500	41	1697.3
500	42	2180
500	43	2382
500	44	3223
500	45	3276
500	46	3882
500	47	3866
500	48	5291
500	49	5140
500	50	3052
500	51	1564.7
500	52	1721.3
500	53	1433.6
500	54	1374.8
500	55	1516
500	56	1845
500	57	2560
500	58	2828
500	59	3441
500	60	3615
500	61	3494
500	62	4023
500	63	5377
500	64	5036
500	65	3041
500	66	1595.8
500	67	1456.2
500	68	1391.5
500	69	1259.7
500	70	1335.4
500	71	1687.8
500	72	2263
500	73	2772
500	74	3071
500	75	3167
500	76	3051
500	77	3623
500	78	4069
500	79	5283
500	80	5194
500	81	3111
500	82	1579.2
500	83	1317.2
500	84	1165.3
500	85	1112.6
500	86	1440.4
500	87	2046
500	88	2465
500	89	2864
500	90	3005
500	91	3281
500	92	3883
500	93	4289
500	94	5520
500	95	5115
500	96	3045
500	97	1538.5
500	98	1276.3
500	99	1256.3
500	100	1137.6
500	101	1178
500	102	1597.1
500	103	2391
500	104	3066
500	105	3415
500	106	3451
500	107	3483
500	108	3903
500	109	4293
500	110	5454
500	111	5299
500	112	3265
500	113	1555.8
500	114	1189
500	115	1067.1
500	116	1007.5
500	117	1166.4
500	118	1788.2
500	119	2890
500	120	3412
500	121	3675
500	122	3836
500	123	4164
500	124	4554
500	125	5666
500	126	5146
500	127	3010
500	128	1463.7
500	129	1164.7
500	130	1145.1
500	131	1059.9
500	132	1141.5
500	133	1633.1
500	134	2469
500	135	3239
500	136	3616
500	137	3666
500	138	3694
500	139	4059
500	140	4438
500	141	5537
500	142	5254
500	143	3062
500	144	1402.3
500	145	1120.9
500	146	1010.3
500	147	1006.2
500	148	1456.8
500	149	2205
500	150	2698
500	151	3143
500	152	3327
500	153	3667
500	154	4188
500	155	4557
500	156	5666
500	157	5156
500	158	3095
500	159	1442.5
500	160	1200
500	161	1201.5
500	162	1141.4
500	163	1289.6
500	164	1883
500	165	2650
500	166	3221
500	167	3576
500	168	3720
500	169	3520
500	170	4001
500	171	4063
500	172	5362
500	173	5336
500	174	3128
500	175	1422.7
500	176	1676.8
500	177	1294.9
500	178	1336
500	179	1777.5
500	180	2382
500	181	3058
500	182	3470
500	183	4134
500	184	4216
500	185	4029
500	186	4551
500	187	5667
500	188	5344
500	189	3079
500	190	3076
500	191	1325.9
500	192	1342.3
500	193	1431
500	194	1912
500	195	2737
500	196	3106
500	197	4063
500	198	4057
500	199	4639
500	200	4529
500	201	5713
500	202	5146
500	203	5273
500	204	3091
500	205	3099
500	206	1496.4
500	207	1797.4
500	208	2291
500	209	3869
500	210	4118
500	211	4897
500	212	4806
500	213	5812
500	214	5505
500	215	5219
500	216	5304
500	217	3079
500	218	3274
500	219	2898
500	220	3607
500	221	4570
500	222	4687
500	223	5967
500	224	5750
500	225	5203
500	226	5305
500	227	3529
500	228	4209
500	229	4315
500	230	5842
500	231	5719
500	232	5169
500	233	5569
500	234	5634
500	235	5474
500	236	716.4
500	237	621.2
500	238	482.4
500	239	827.9
600	1	19200
600	2	5488
600	3	5690
600	4	9651
600	5	11535
600	6	5441
600	7	3319
600	8	3656
600	9	4254
600	10	5949
600	11	6030
600	12	10329
600	13	5616
600	14	3281
600	15	3419
600	16	2185
600	17	3575
600	18	4559
600	19	4636
600	20	6132
600	21	5932
600	22	8684
600	23	5666
600	24	3483
600	25	3555
600	26	1984
600	27	2251
600	28	2728
600	29	3959
600	30	4149
600	31	4986
600	32	4895
600	33	6048
600	34	5780
600	35	5893
600	36	3683
600	37	3603
600	38	1855
600	39	1823
600	40	1683.3
600	41	2098
600	42	2940
600	43	3191
600	44	4131
600	45	4107
600	46	4827
600	47	4812
600	48	6139
600	49	5996
600	50	3875
600	51	2188
600	52	2457
600	53	1831
600	54	1736.5
600	55	1919
600	56	2320
600	57	3259
600	58	3727
600	59	4365
600	60	4440
600	61	4244
600	62	4977
600	63	6224
600	64	5936
600	65	3864
600	66	2228
600	67	1723.6
600	68	1701.1
600	69	1589.6
600	70	1716.7
600	71	2164
600	72	2834
600	73	3430
600	74	3895
600	75	4141
600	76	3965
600	77	4395
600	78	5009
600	79	6137
600	80	6066
600	81	3933
600	82	2194
600	83	1604.1
600	84	1463.9
600	85	1427.6
600	86	1880
600	87	2615
600	88	3087
600	89	3511
600	90	3665
600	91	4253
600	92	4674
600	93	5232
600	94	6369
600	95	6069
600	96	3892
600	97	2203
600	98	1565.6
600	99	1547.8
600	100	1431
600	101	1537.1
600	102	2121
600	103	3038
600	104	3744
600	105	4085
600	106	4118
600	107	4414
600	108	4669
600	109	5223
600	110	6309
600	111	6198
600	112	4162
600	113	2280
600	114	1489.1
600	115	1341.8
600	116	1297.7
600	117	1547.2
600	118	2356
600	119	3615
600	120	4121
600	121	4359
600	122	4731
600	123	4910
600	124	5469
600	125	6516
600	126	6068
600	127	3866
600	128	2132
600	129	1434.3
600	130	1405
600	131	1335.7
600	132	1483.2
600	133	2162
600	134	3148
600	135	3969
600	136	4296
600	137	4335
600	138	4586
600	139	4820
600	140	5355
600	141	6397
600	142	6123
600	143	3914
600	144	2034
600	145	1372.3
600	146	1275.1
600	147	1297.6
600	148	1917
600	149	2827
600	150	3381
600	151	3845
600	152	3982
600	153	4602
600	154	4955
600	155	5485
600	156	6521
600	157	6029
600	158	3980
600	159	2138
600	160	1437.2
600	161	1495.6
600	162	1446.6
600	163	1689.5
600	164	2423
600	165	3297
600	166	3920
600	167	4529
600	168	4682
600	169	4449
600	170	4794
600	171	4990
600	172	6236
600	173	6203
600	174	4019
600	175	2127
600	176	2475
600	177	1783.8
600	178	1734.2
600	179	2263
600	180	2976
600	181	3966
600	182	4443
600	183	5026
600	184	5032
600	185	4846
600	186	5484
600	187	6545
600	188	6213
600	189	3968
600	190	3962
600	191	2014
600	192	2055
600	193	1836
600	194	2400
600	195	3693
600	196	4080
600	197	4911
600	198	4880
600	199	5605
600	200	5456
600	201	6593
600	202	5998
600	203	6141
600	204	3992
600	205	4029
600	206	2252
600	207	2546
600	208	3110
600	209	4765
600	210	4978
600	211	5870
600	212	5762
600	213	6672
600	214	6359
600	215	6125
600	216	6178
600	217	4017
600	218	4187
600	219	3758
600	220	4442
600	221	5555
600	222	5639
600	223	6832
600	224	6606
600	225	6154
600	226	6181
600	227	4488
600	228	5182
600	229	5288
600	230	6707
600	231	6582
600	232	6044
600	233	6470
600	234	6539
600	235	6356
600	236	1059.1
600	237	858.5
600	238	701.1
600	239	1105.9
700	1	
700	2	6333
700	3	6558
700	4	131710
700	5	
700	6	6244
700	7	4152
700	8	4520
700	9	5162
700	10	6769
700	11	107910
700	12	
700	13	6445
700	14	4133
700	15	4244
700	16	2952
700	17	4292
700	18	5475
700	19	5545
700	20	6950
700	21	90910
700	22	127590
700	23	6487
700	24	4342
700	25	4423
700	26	2730
700	27	2974
700	28	3559
700	29	4730
700	30	4906
700	31	5898
700	32	5788
700	33	6879
700	34	71990
700	35	6717
700	36	4555
700	37	4434
700	38	2587
700	39	2598
700	40	2044
700	41	2527
700	42	3815
700	43	4071
700	44	4866
700	45	4835
700	46	5707
700	47	5643
700	48	6979
700	49	6814
700	50	4734
700	51	2887
700	52	3269
700	53	2659
700	54	2549
700	55	2489
700	56	2832
700	57	4154
700	58	4641
700	59	5113
700	60	5200
700	61	5048
700	62	5784
700	63	7053
700	64	79150
700	65	4699
700	66	2927
700	67	1999
700	68	2811
700	69	2845
700	70	2666
700	71	2666
700	72	3427
700	73	4109
700	74	4826
700	75	5012
700	76	4763
700	77	5210
700	78	5791
700	79	24030
700	80	6913
700	81	4796
700	82	2920
700	83	1938.6
700	84	1787.1
700	85	1781.8
700	86	2349
700	87	3185
700	88	3691
700	89	4156
700	90	4381
700	91	5061
700	92	5439
700	93	6007
700	94	7186
700	95	89540
700	96	4751
700	97	2953
700	98	1898
700	99	1885
700	100	1759.8
700	101	1924
700	102	2659
700	103	3656
700	104	4388
700	105	4731
700	106	4876
700	107	5164
700	108	5431
700	109	5985
700	110	9356
700	111	7039
700	112	5044
700	113	3048
700	114	1860
700	115	1687.6
700	116	1646.5
700	117	1984
700	118	2936
700	119	4275
700	120	4738
700	121	5099
700	122	5469
700	123	5659
700	124	6229
700	125	7332
700	126	83430
700	127	4715
700	128	2878
700	129	1762.2
700	130	1723.6
700	131	1659.7
700	132	1866
700	133	2747
700	134	3788
700	135	4613
700	136	4965
700	137	5088
700	138	5299
700	139	5589
700	140	6103
700	141	7799
700	142	6974
700	143	4778
700	144	2771
700	145	1683.9
700	146	1569.2
700	147	1631.4
700	148	2438
700	149	3451
700	150	4025
700	151	4516
700	152	4713
700	153	5341
700	154	5720
700	155	6233
700	156	7334
700	157	62520
700	158	4815
700	159	2860
700	160	1714
700	161	4508
700	162	5517
700	163	5190
700	164	2993
700	165	3960
700	166	4694
700	167	5407
700	168	5475
700	169	5199
700	170	5596
700	171	5784
700	172	12238
700	173	7025
700	174	4844
700	175	2855
700	176	3243
700	177	2605
700	178	2186
700	179	2778
700	180	3687
700	181	4881
700	182	5317
700	183	5788
700	184	5837
700	185	5677
700	186	6222
700	187	7359
700	188	7041
700	189	4818
700	190	4825
700	191	2801
700	192	2929
700	193	2268
700	194	2946
700	195	4591
700	196	4933
700	197	5722
700	198	5693
700	199	6398
700	200	6211
700	201	7407
700	202	62560
700	203	6986
700	204	4862
700	205	4961
700	206	3094
700	207	3362
700	208	3958
700	209	5622
700	210	5819
700	211	6667
700	212	6537
700	213	7493
700	214	27440
700	215	83270
700	216	7040
700	217	4913
700	218	5072
700	219	4528
700	220	5310
700	221	6387
700	222	6435
700	223	7656
700	224	24560
700	225	93130
700	226	7033
700	227	5335
700	228	5984
700	229	6081
700	230	7540
700	231	39950
700	232	76410
700	233	7329
700	234	7389
700	235	67850
700	236	1666.6
700	237	1099
700	238	924.7
700	239	1365
800	1	
800	2	7247
800	3	7477
800	4	
800	5	
800	6	7113
800	7	5051
800	8	5410
800	9	5953
800	10	7641
800	11	
800	12	
800	13	7329
800	14	5101
800	15	5141
800	16	3698
800	17	5073
800	18	6298
800	19	6354
800	20	7817
800	21	
800	22	
800	23	7356
800	24	7134
800	25	7713
800	26	6267
800	27	4347
800	28	4303
800	29	5508
800	30	5705
800	31	6655
800	32	6552
800	33	7718
800	34	
800	35	7547
800	36	5448
800	37	5304
800	38	3437
800	39	3576
800	40	2547
800	41	3063
800	42	4579
800	43	4821
800	44	5644
800	45	5630
800	46	6438
800	47	6346
800	48	7752
800	49	7633
800	50	5613
800	51	3610
800	52	113260
800	53	129810
800	54	119080
800	55	115920
800	56	3414
800	57	5023
800	58	5412
800	59	5893
800	60	5999
800	61	5846
800	62	6450
800	63	7814
800	64	
800	65	5525
800	66	3634
800	67	2353
800	68	132950
800	69	133090
800	70	131060
800	71	3194
800	72	4082
800	73	5121
800	74	5627
800	75	5800
800	76	5423
800	77	5973
800	78	6443
800	79	
800	80	7779
800	81	5686
800	82	3692
800	83	3258
800	84	2784
800	85	2424
800	86	2900
800	87	3774
800	88	4283
800	89	4901
800	90	5158
800	91	5688
800	92	6179
800	93	6659
800	94	7920
800	95	
800	96	5613
800	97	3744
800	98	2320
800	99	21900
800	100	20310
800	101	10905
800	102	3235
800	103	4263
800	104	4993
800	105	5452
800	106	5606
800	107	5759
800	108	6165
800	109	6627
800	110	133210
800	111	7822
800	112	5964
800	113	3836
800	114	2410
800	115	2097
800	116	2056
800	117	2502
800	118	3564
800	119	4872
800	120	5324
800	121	5816
800	122	6065
800	123	6390
800	124	6877
800	125	8055
800	126	
800	127	5576
800	128	3657
800	129	2223
800	130	7889
800	131	11060
800	132	8027
800	133	3352
800	134	4420
800	135	5213
800	136	5714
800	137	5796
800	138	5907
800	139	6314
800	140	6751
800	141	121790
800	142	7828
800	143	5682
800	144	3554
800	145	7471
800	146	5618
800	147	4387
800	148	3341
800	149	4064
800	150	4630
800	151	5262
800	152	5476
800	153	5947
800	154	6450
800	155	6882
800	156	8045
800	157	
800	158	5639
800	159	3567
800	160	2124
800	161	154240
800	162	141880
800	163	143880
800	164	3577
800	165	4759
800	166	72220
800	167	61420
800	168	51490
800	169	5854
800	170	6336
800	171	6455
800	172	
800	173	7816
800	174	5654
800	175	3565
800	176	89800
800	177	83150
800	178	105620
800	179	94560
800	180	4513
800	181	41820
800	182	37220
800	183	35220
800	184	6935
800	185	6425
800	186	6884
800	187	8083
800	188	7829
800	189	5679
800	190	5656
800	191	3556
800	192	3772
800	193	2742
800	194	3690
800	195	5336
800	196	5627
800	197	6509
800	198	6459
800	199	7065
800	200	6884
800	201	8130
800	202	
800	203	7813
800	204	5980
800	205	5933
800	206	4636
800	207	5838
800	208	4744
800	209	6435
800	210	6604
800	211	7329
800	212	7189
800	213	8226
800	214	
800	215	
800	216	7903
800	217	5751
800	218	5974
800	219	5431
800	220	6125
800	221	7089
800	222	7115
800	223	8400
800	224	
800	225	
800	226	7867
800	227	6153
800	228	6681
800	229	6761
800	230	8307
800	231	
800	232	
800	233	8094
800	234	8145
800	235	
800	236	2381
800	237	1394.7
800	238	1220.9
800	239	1672.7
900	1	
900	2	183200
900	3	146560
900	4	
900	5	
900	6	164000
900	7	164270
900	8	113850
900	9	6686
900	10	27490
900	11	
900	12	
900	13	183800
900	14	191400
900	15	190600
900	16	136980
900	17	5889
900	18	7041
900	19	7092
900	20	11750
900	21	
900	22	
900	23	145170
900	24	156510
900	25	163450
900	26	160820
900	27	162080
900	28	4968
900	29	6314
900	30	6487
900	31	7343
900	32	7240
900	33	8646
900	34	
900	35	131120
900	36	146440
900	37	160030
900	38	94750
900	39	100000
900	40	97830
900	41	19280
900	42	5255
900	43	5463
900	44	6402
900	45	6379
900	46	7114
900	47	7017
900	48	11797
900	49	120300
900	50	150410
900	51	166150
900	52	
900	53	
900	54	
900	55	
900	56	103980
900	57	202100
900	58	175240
900	59	176220
900	60	167610
900	61	6533
900	62	7103
900	63	9468
900	64	
900	65	149940
900	66	187500
900	67	201200
900	68	
900	69	
900	70	
900	71	124900
900	72	4885
900	73	231500
900	74	223100
900	75	234000
900	76	6093
900	77	6622
900	78	7106
900	79	
900	80	113480
900	81	158990
900	82	195500
900	83	182600
900	84	104790
900	85	100870
900	86	92890
900	87	4373
900	88	4888
900	89	5654
900	90	5870
900	91	6309
900	92	6839
900	93	7316
900	94	8600
900	95	
900	96	157960
900	97	199900
900	98	214400
900	99	
900	100	
900	101	
900	102	125330
900	103	4852
900	104	5602
900	105	6159
900	106	6238
900	107	6391
900	108	6805
900	109	7277
900	110	
900	111	109520
900	112	161720
900	113	208900
900	114	229500
900	115	228300
900	116	226100
900	117	205200
900	118	121740
900	119	5432
900	120	5956
900	121	6450
900	122	6695
900	123	7028
900	124	7535
900	125	8728
900	126	
900	127	149910
900	128	194000
900	129	219700
900	130	191800
900	131	
900	132	194900
900	133	157000
900	134	5011
900	135	5840
900	136	6398
900	137	6411
900	138	6548
900	139	6929
900	140	7410
900	141	
900	142	93330
900	143	156470
900	144	195100
900	145	203400
900	146	127820
900	147	127730
900	148	121170
900	149	4673
900	150	5240
900	151	5974
900	152	6153
900	153	6584
900	154	7072
900	155	7546
900	156	8714
900	157	
900	158	128560
900	159	156790
900	160	191900
900	161	
900	162	
900	163	
900	164	112900
900	165	5568
900	166	
900	167	
900	168	
900	169	6526
900	170	6963
900	171	7177
900	172	
900	173	78640
900	174	126030
900	175	164480
900	176	
900	177	
900	178	
900	179	
900	180	5311
900	181	
900	182	
900	183	
900	184	225800
900	185	7055
900	186	7577
900	187	8817
900	188	75210
900	189	136240
900	190	126010
900	191	70790
900	192	64310
900	193	69440
900	194	77790
900	195	6058
900	196	6323
900	197	7193
900	198	7118
900	199	7754
900	200	7578
900	201	8867
900	202	
900	203	92240
900	204	141870
900	205	148660
900	206	156250
900	207	180600
900	208	140580
900	209	7143
900	210	7278
900	211	8025
900	212	7873
900	213	8973
900	214	
900	215	
900	216	114140
900	217	180800
900	218	199000
900	219	165920
900	220	6837
900	221	7824
900	222	7828
900	223	9169
900	224	
900	225	
900	226	124380
900	227	141780
900	228	7451
900	229	7512
900	230	9125
900	231	
900	232	
900	233	38930
900	234	12015
900	235	
900	236	89030
900	237	158990
900	238	163820
900	239	132730
1000	1	NaN
1000	2	NaN
1000	3	O.L.
1000	4	
1000	5	
1000	6	
1000	7	
1000	8	
1000	9	59020
1000	10	
1000	11	
1000	12	
1000	13	
1000	14	
1000	15	
1000	16	
1000	17	61210
1000	18	7969
1000	19	19740
1000	20	
1000	21	
1000	22	
1000	23	
1000	24	
1000	25	
1000	26	
1000	27	
1000	28	105080
1000	29	7077
1000	30	7199
1000	31	8210
1000	32	8091
1000	33	162880
1000	34	
1000	35	
1000	36	
1000	37	
1000	38	
1000	39	
1000	40	
1000	41	
1000	42	80870
1000	43	6174
1000	44	7104
1000	45	7058
1000	46	7963
1000	47	7757
1000	48	
1000	49	
1000	50	
1000	51	
1000	52	
1000	53	
1000	54	
1000	55	
1000	56	
1000	57	
1000	58	
1000	59	
1000	60	
1000	61	7139
1000	62	7813
1000	63	161900
1000	64	
1000	65	
1000	66	
1000	67	
1000	68	
1000	69	
1000	70	
1000	71	
1000	72	60650
1000	73	
1000	74	
1000	75	
1000	76	6775
1000	77	7202
1000	78	7873
1000	79	
1000	80	
1000	81	
1000	82	
1000	83	
1000	84	
1000	85	
1000	86	
1000	87	103240
1000	88	5591
1000	89	6329
1000	90	6482
1000	91	6967
1000	92	7433
1000	93	8029
1000	94	25910
1000	95	
1000	96	
1000	97	
1000	98	
1000	99	
1000	100	
1000	101	
1000	102	
1000	103	52830
1000	104	6271
1000	105	6797
1000	106	6785
1000	107	7059
1000	108	7380
1000	109	7975
1000	110	
1000	111	
1000	112	
1000	113	
1000	114	
1000	115	
1000	116	
1000	117	
1000	118	
1000	119	6013
1000	120	6630
1000	121	7019
1000	122	7366
1000	123	7611
1000	124	8241
1000	125	10775
1000	126	
1000	127	
1000	128	
1000	129	
1000	130	
1000	131	
1000	132	
1000	133	
1000	134	81540
1000	135	6518
1000	136	7001
1000	137	6968
1000	138	7209
1000	139	7501
1000	140	8101
1000	141	
1000	142	
1000	143	
1000	144	
1000	145	
1000	146	
1000	147	
1000	148	
1000	149	110030
1000	150	5960
1000	151	6636
1000	152	6760
1000	153	7246
1000	154	7647
1000	155	8249
1000	156	30180
1000	157	
1000	158	
1000	159	
1000	160	
1000	161	
1000	162	
1000	163	
1000	164	
1000	165	6337
1000	166	
1000	167	
1000	168	
1000	169	7217
1000	170	7560
1000	171	18110
1000	172	
1000	173	
1000	174	
1000	175	
1000	176	
1000	177	
1000	178	
1000	179	
1000	180	80380
1000	181	
1000	182	
1000	183	
1000	184	
1000	185	7654
1000	186	8343
1000	187	122960
1000	188	
1000	189	
1000	190	
1000	191	
1000	192	
1000	193	
1000	194	
1000	195	85960
1000	196	7041
1000	197	7808
1000	198	7717
1000	199	8570
1000	200	8289
1000	201	110430
1000	202	
1000	203	
1000	204	
1000	205	
1000	206	
1000	207	
1000	208	
1000	209	7803
1000	210	7884
1000	211	8886
1000	212	8661
1000	213	44510
1000	214	
1000	215	
1000	216	
1000	217	
1000	218	
1000	219	
1000	220	109040
1000	221	8823
1000	222	8680
1000	223	65940
1000	224	
1000	225	
1000	226	
1000	227	
1000	228	96220
1000	229	8754
1000	230	130770
1000	231	
1000	232	
1000	233	
1000	234	
1000	235	
1000	236	
1000	237	
1000	238	
1000	239	
